<svg width="37" height="43" viewBox="0 0 37 43" fill="none" xmlns="http://www.w3.org/2000/svg">
<path d="M11.7572 26.0263V37.3421C11.7569 38.8233 12.3416 40.2455 13.3857 41.3033C14.4297 42.3612 15.85 42.9704 17.3414 43H31.6248V20.3684H17.3414C15.85 20.398 14.4297 21.0072 13.3857 22.065C12.3416 23.1229 11.7569 24.5451 11.7572 26.0263Z" fill="#FFCC80"/>
<path d="M19.2787 23.1974C19.2787 22.4471 19.5789 21.7275 20.1132 21.197C20.6475 20.6665 21.3722 20.3684 22.1278 20.3684H33.5241C34.2798 20.3684 35.0044 20.6665 35.5387 21.197C36.073 21.7275 36.3732 22.4471 36.3732 23.1974C36.3732 23.9476 36.073 24.6672 35.5387 25.1977C35.0044 25.7283 34.2798 26.0263 33.5241 26.0263H22.1278C21.3722 26.0263 20.6475 25.7283 20.1132 25.1977C19.5789 24.6672 19.2787 23.9476 19.2787 23.1974Z" fill="#FFCC80"/>
<path d="M24.9769 28.8553C24.9769 28.105 25.2771 27.3854 25.8114 26.8549C26.3457 26.3244 27.0704 26.0263 27.826 26.0263H33.5241C34.2797 26.0263 35.0044 26.3244 35.5387 26.8549C36.073 27.3854 36.3732 28.105 36.3732 28.8553C36.3732 29.6055 36.073 30.3251 35.5387 30.8556C35.0044 31.3862 34.2797 31.6842 33.5241 31.6842H27.826C27.0704 31.6842 26.3457 31.3862 25.8114 30.8556C25.2771 30.3251 24.9769 29.6055 24.9769 28.8553Z" fill="#FFCC80"/>
<path d="M24.0272 34.5132C24.0272 33.7629 24.3274 33.0433 24.8617 32.5128C25.396 31.9823 26.1207 31.6842 26.8763 31.6842H32.5745C33.3301 31.6842 34.0548 31.9823 34.5891 32.5128C35.1234 33.0433 35.4235 33.7629 35.4235 34.5132C35.4235 35.2634 35.1234 35.983 34.5891 36.5135C34.0548 37.0441 33.3301 37.3421 32.5745 37.3421H26.8763C26.1207 37.3421 25.396 37.0441 24.8617 36.5135C24.3274 35.983 24.0272 35.2634 24.0272 34.5132Z" fill="#FFCC80"/>
<path d="M23.0775 40.1711C23.0775 39.4208 23.3777 38.7012 23.912 38.1707C24.4463 37.6402 25.171 37.3421 25.9266 37.3421H31.6247C32.3804 37.3421 33.105 37.6402 33.6393 38.1707C34.1737 38.7012 34.4738 39.4208 34.4738 40.1711C34.4738 40.9213 34.1737 41.6409 33.6393 42.1714C33.105 42.702 32.3804 43 31.6247 43H25.9266C25.171 43 24.4463 42.702 23.912 42.1714C23.3777 41.6409 23.0775 40.9213 23.0775 40.1711Z" fill="#FFCC80"/>
<path d="M18.8229 16.1816C19.7277 15.2078 20.3797 14.0296 20.7223 12.7492L21.4061 9.97678C21.4667 9.71246 21.6166 9.47669 21.8308 9.30859C22.045 9.14049 22.3107 9.05019 22.5837 9.05266H23.2105C23.9767 9.14707 24.6835 9.51099 25.2028 10.0784C25.722 10.6459 26.0192 11.3793 26.0406 12.1456V13.4658C26.1149 16.085 25.5203 18.6802 24.3121 21.0097L21.8239 25.5171L14.0365 21.4812L18.8229 16.1816Z" fill="#FFCC80"/>
<path d="M30.6751 27.9123C30.4232 27.9123 30.1816 27.8129 30.0035 27.6361C29.8254 27.4592 29.7254 27.2194 29.7254 26.9693C29.7254 26.7192 29.8254 26.4793 30.0035 26.3025C30.1816 26.1257 30.4232 26.0263 30.6751 26.0263H34.4738L30.6751 27.9123ZM29.7254 33.5702C29.4735 33.5702 29.2319 33.4708 29.0538 33.294C28.8757 33.1171 28.7757 32.8773 28.7757 32.6272C28.7757 32.3771 28.8757 32.1372 29.0538 31.9604C29.2319 31.7836 29.4735 31.6842 29.7254 31.6842H33.5241L29.7254 33.5702ZM28.7757 39.2281C28.5238 39.2281 28.2823 39.1287 28.1041 38.9519C27.926 38.775 27.826 38.5352 27.826 38.2851C27.826 38.035 27.926 37.7951 28.1041 37.6183C28.2823 37.4414 28.5238 37.3421 28.7757 37.3421H32.5745L28.7757 39.2281Z" fill="#F2A25A"/>
<path d="M8.96509 42.057H0V21.3114H12.6689V38.3794C12.6448 39.3472 12.2469 40.2688 11.5574 40.9534C10.868 41.638 9.93982 42.0331 8.96509 42.057Z" fill="#199DBF"/>
<path d="M24.4261 1.33904C24.4261 0.599506 23.8223 0 23.0775 0C22.3327 0 21.7289 0.599506 21.7289 1.33904V4.96009C21.7289 5.69962 22.3327 6.29912 23.0775 6.29912C23.8223 6.29912 24.4261 5.69962 24.4261 4.96009V1.33904Z" fill="#39CABE"/>
<path d="M30.6748 3.23866L28.0962 5.79913C27.5695 6.32206 27.5695 7.16989 28.0962 7.69281C28.6228 8.21574 29.4767 8.21574 30.0033 7.69281L32.582 5.13234C33.1086 4.60942 33.1086 3.76159 32.582 3.23866C32.0554 2.71573 31.2015 2.71573 30.6748 3.23866Z" fill="#39CABE"/>
<path d="M35.6325 10.8632H31.9856C31.2409 10.8632 30.6371 11.4627 30.6371 12.2022C30.6371 12.9417 31.2409 13.5412 31.9856 13.5412H35.6325C36.3773 13.5412 36.981 12.9417 36.981 12.2022C36.981 11.4627 36.3773 10.8632 35.6325 10.8632Z" fill="#39CABE"/>
<path d="M15.7649 12.4851H12.1181C11.3733 12.4851 10.7695 13.0846 10.7695 13.8241C10.7695 14.5637 11.3733 15.1632 12.1181 15.1632H15.7649C16.5097 15.1632 17.1135 14.5637 17.1135 13.8241C17.1135 13.0846 16.5097 12.4851 15.7649 12.4851Z" fill="#39CABE"/>
<path d="M15.9455 4.39654C15.4188 3.87362 14.565 3.87362 14.0383 4.39654C13.5117 4.91947 13.5117 5.7673 14.0383 6.29022L16.617 8.8507C17.1437 9.37362 17.9975 9.37362 18.5242 8.8507C19.0508 8.32777 19.0508 7.47994 18.5242 6.95701L15.9455 4.39654Z" fill="#39CABE"/>
<path d="M6.51491 36.1351C6.96829 36.1351 7.40309 36.3139 7.72368 36.6322C8.04426 36.9505 8.22436 37.3823 8.22436 37.8324V42.057H4.82446V37.8324C4.82444 37.3855 5.00193 36.9566 5.31841 36.6388C5.6349 36.3211 6.06484 36.14 6.51491 36.1351Z" fill="#F1F9FB"/>
</svg>
